{
    "port": 8008,
    "maxSockets": {
        "http": 30,
        "https": 30
    },
    "logs": {
        "access": "/home/gb/logs/team3_frontend/access.log"
    },
    "monitoring": {
        "host": "127.0.0.1",
        "port": 8666,
        "prefix": ""
    }

}